\relax 
\catcode `:\active 
\catcode `;\active 
\catcode `!\active 
\catcode `?\active 
\select@language{french}
\@writefile{toc}{\select@language{french}}
\@writefile{lof}{\select@language{french}}
\@writefile{lot}{\select@language{french}}
\citation{ref5}
\citation{ref1}
\citation{ref2}
\citation{ref3}
\citation{ref4}
\@writefile{toc}{\contentsline {subsubsection}{Qt}{1}}
\@writefile{toc}{\contentsline {subsubsection}{OpenGL}{1}}
\@writefile{toc}{\contentsline {subsubsection}{Cairo}{1}}
\@writefile{toc}{\contentsline {subsubsection}{Couleurs}{3}}
\@writefile{toc}{\contentsline {subsubsection}{Zoom \& d\IeC {\'e}placement}{3}}
\bibstyle{unsrt}
\bibdata{Rapport_Projet}
\bibcite{ref5}{1}
\bibcite{ref1}{2}
\bibcite{ref2}{3}
\bibcite{ref3}{4}
\bibcite{ref4}{5}
